{
  "default": "dev_mysql",

  "dev_mysql": {
    "driver": "mysql",
    "user": "nostra",
    "password": "nostra",
    "database": "nodejs",
    "hostname": "localhost"
  },
  
  "dev": {
    "driver": "sqlite3",
    "filename": "dev.db"
  },

  "test": {
    "driver": "sqlite3",
    "filename": "test.db"
  },

  "prod": {
    "driver": "sqlite3",
    "filename": "prod.db"
  }
}
